<?xml version="1.0" encoding="UTF-8"?>
<svg id="Capa_1" data-name="Capa 1" xmlns="http://www.w3.org/2000/svg" xmlns:xlink="http://www.w3.org/1999/xlink" viewBox="0 0 63.17 63.17">
  <defs>
    <style>
      .cls-1 {
        fill: #fff;
      }

      .cls-2 {
        fill: url(#Degradado_sin_nombre_2);
      }
    </style>
    <linearGradient id="Degradado_sin_nombre_2" data-name="Degradado sin nombre 2" x1="0" y1="31.59" x2="63.17" y2="31.59" gradientUnits="userSpaceOnUse">
      <stop offset="0" stop-color="#00a79b"/>
      <stop offset="1" stop-color="#79bf43"/>
    </linearGradient>
  </defs>
  <g>
    <circle class="cls-1" cx="31.59" cy="31.59" r="28.77" transform="translate(-5.39 56.65) rotate(-79.13)"/>
    <path class="cls-2" d="M31.59,63.17C14.17,63.17,0,49,0,31.59S14.17,0,31.59,0s31.59,14.17,31.59,31.59-14.17,31.59-31.59,31.59Zm0-57.54c-14.31,0-25.96,11.65-25.96,25.96s11.64,25.96,25.96,25.96,25.96-11.65,25.96-25.96S45.9,5.63,31.59,5.63Z"/>
  </g>
  <path d="M30.99,44.29l-4-1.99,4.33-8.42c-2.1,0-3.88-.75-5.36-2.25-1.47-1.5-2.21-3.36-2.21-5.59s.75-3.99,2.26-5.48c1.51-1.5,3.33-2.24,5.46-2.24s4.09,.78,5.57,2.33c1.49,1.55,2.23,3.33,2.23,5.35,0,.76-.12,1.53-.34,2.29s-.76,1.95-1.59,3.55l-6.35,12.46Zm.59-14.86c.88,0,1.61-.32,2.2-.96,.59-.64,.89-1.43,.89-2.36s-.31-1.77-.93-2.42-1.35-.97-2.18-.97c-.87,0-1.62,.32-2.25,.96-.63,.64-.94,1.45-.94,2.41s.31,1.74,.92,2.38c.61,.64,1.38,.96,2.29,.96Z"/>
</svg>