<?xml version="1.0" encoding="UTF-8"?>
<svg id="Capa_1" data-name="Capa 1" xmlns="http://www.w3.org/2000/svg" viewBox="0 0 537.64 60.01">
  <path d="M0,7.31H10.43c5.71,0,9.78,.51,12.2,1.53s4.37,2.71,5.85,5.08c1.48,2.37,2.21,5.17,2.21,8.4,0,3.4-.81,6.24-2.44,8.53s-4.08,4.01-7.36,5.19l12.25,22.99h-10.76l-11.63-21.9h-.9v21.9H0V7.31ZM9.84,27.53h3.08c3.13,0,5.29-.41,6.47-1.23,1.18-.82,1.77-2.19,1.77-4.09,0-1.13-.29-2.11-.88-2.95-.58-.84-1.37-1.43-2.35-1.8-.98-.37-2.78-.55-5.4-.55h-2.7v10.62Z"/>
  <path d="M78.36,42.68h-30.83c.44,2.72,1.63,4.88,3.57,6.49s4.4,2.41,7.4,2.41c3.59,0,6.67-1.25,9.25-3.76l8.09,3.8c-2.02,2.86-4.43,4.97-7.24,6.35s-6.15,2.06-10.02,2.06c-6,0-10.89-1.89-14.66-5.68-3.77-3.79-5.66-8.53-5.66-14.22s1.88-10.68,5.64-14.54,8.48-5.78,14.15-5.78c6.02,0,10.92,1.93,14.7,5.78,3.77,3.86,5.66,8.95,5.66,15.28l-.04,1.83Zm-9.6-7.56c-.63-2.13-1.88-3.87-3.75-5.2-1.87-1.34-4.03-2-6.5-2-2.68,0-5.02,.75-7.04,2.25-1.27,.94-2.44,2.59-3.52,4.96h20.81Z"/>
  <path d="M114.36,20.78h9.6V59.03h-9.6v-4.04c-1.87,1.78-3.75,3.06-5.64,3.85-1.88,.79-3.93,1.18-6.13,1.18-4.94,0-9.21-1.92-12.82-5.75-3.6-3.83-5.41-8.6-5.41-14.29s1.74-10.75,5.23-14.52c3.49-3.77,7.72-5.66,12.71-5.66,2.29,0,4.45,.43,6.46,1.3,2.01,.87,3.87,2.17,5.58,3.9v-4.22Zm-10.09,7.88c-2.97,0-5.43,1.05-7.39,3.15-1.96,2.1-2.94,4.79-2.94,8.07s1,6.02,3,8.16c2,2.13,4.46,3.2,7.38,3.2s5.51-1.05,7.5-3.15,2.98-4.85,2.98-8.24-.99-6.02-2.98-8.09-4.5-3.09-7.53-3.09Z"/>
  <path d="M132.61,6.01h9.6V59.03h-9.6V6.01Z"/>
  <path d="M154.67,5.03c1.68,0,3.13,.61,4.33,1.83s1.81,2.7,1.81,4.43-.6,3.17-1.79,4.38-2.62,1.81-4.28,1.81-3.16-.62-4.36-1.85-1.81-2.72-1.81-4.48,.6-3.13,1.79-4.32,2.63-1.79,4.31-1.79Zm-4.8,15.75h9.6V59.03h-9.6V20.78Z"/>
  <path d="M168.12,20.78h9.6v4.39c1.64-1.8,3.46-3.15,5.47-4.04,2-.89,4.19-1.34,6.56-1.34s4.55,.59,6.47,1.76c1.92,1.17,3.47,2.88,4.64,5.13,1.52-2.25,3.39-3.96,5.61-5.13,2.22-1.17,4.64-1.76,7.27-1.76s5.11,.63,7.18,1.9c2.06,1.27,3.55,2.92,4.45,4.96,.9,2.04,1.35,5.36,1.35,9.95v22.43h-9.67v-19.41c0-4.34-.54-7.27-1.62-8.81-1.08-1.54-2.7-2.3-4.85-2.3-1.64,0-3.11,.47-4.41,1.41s-2.27,2.23-2.9,3.88-.95,4.31-.95,7.96v17.26h-9.67v-18.53c0-3.42-.25-5.9-.76-7.44-.51-1.54-1.26-2.68-2.27-3.43s-2.23-1.12-3.67-1.12c-1.6,0-3.05,.47-4.35,1.42s-2.28,2.28-2.92,3.99c-.65,1.71-.97,4.41-.97,8.09v17.02h-9.6V20.78Z"/>
  <path d="M274.18,42.68h-30.83c.44,2.72,1.63,4.88,3.57,6.49s4.4,2.41,7.4,2.41c3.59,0,6.67-1.25,9.25-3.76l8.09,3.8c-2.02,2.86-4.43,4.97-7.24,6.35s-6.15,2.06-10.02,2.06c-6,0-10.89-1.89-14.66-5.68-3.77-3.79-5.66-8.53-5.66-14.22s1.88-10.68,5.64-14.54,8.48-5.78,14.15-5.78c6.02,0,10.92,1.93,14.7,5.78,3.77,3.86,5.66,8.95,5.66,15.28l-.04,1.83Zm-9.6-7.56c-.63-2.13-1.88-3.87-3.75-5.2-1.87-1.34-4.03-2-6.5-2-2.68,0-5.02,.75-7.04,2.25-1.27,.94-2.44,2.59-3.52,4.96h20.81Z"/>
  <path d="M281.95,20.78h9.6v3.92c2.18-1.84,4.15-3.11,5.92-3.83,1.77-.72,3.58-1.08,5.42-1.08,3.79,0,7.01,1.32,9.65,3.97,2.22,2.25,3.33,5.58,3.33,9.98v25.28h-9.49v-16.75c0-4.57-.21-7.6-.61-9.1s-1.12-2.64-2.14-3.42c-1.02-.78-2.27-1.18-3.77-1.18-1.94,0-3.61,.65-5,1.95-1.39,1.3-2.36,3.1-2.89,5.39-.28,1.19-.42,3.78-.42,7.76v15.35h-9.6V20.78Z"/>
  <path d="M326.32,6.68h9.6v14.1h5.7v8.26h-5.7v29.99h-9.6V29.04h-4.92v-8.26h4.92V6.68Z"/>
  <path d="M374.98,20.78h9.6V59.03h-9.6v-4.04c-1.87,1.78-3.75,3.06-5.64,3.85-1.88,.79-3.93,1.18-6.13,1.18-4.94,0-9.21-1.92-12.82-5.75-3.6-3.83-5.41-8.6-5.41-14.29s1.74-10.75,5.23-14.52c3.49-3.77,7.72-5.66,12.71-5.66,2.29,0,4.45,.43,6.46,1.3,2.01,.87,3.87,2.17,5.58,3.9v-4.22Zm-10.09,7.88c-2.97,0-5.43,1.05-7.39,3.15-1.96,2.1-2.94,4.79-2.94,8.07s1,6.02,3,8.16c2,2.13,4.46,3.2,7.38,3.2s5.51-1.05,7.5-3.15,2.98-4.85,2.98-8.24-.99-6.02-2.98-8.09-4.5-3.09-7.53-3.09Z"/>
  <path d="M431.72,28.51l-7.99,4.39c-1.5-1.57-2.99-2.66-4.45-3.27-1.47-.61-3.19-.91-5.16-.91-3.59,0-6.49,1.07-8.71,3.21-2.22,2.14-3.33,4.88-3.33,8.23s1.07,5.91,3.2,7.97c2.14,2.06,4.94,3.09,8.41,3.09,4.29,0,7.64-1.46,10.03-4.39l7.57,5.18c-4.1,5.33-9.89,8-17.37,8-6.73,0-11.99-1.99-15.8-5.98-3.81-3.98-5.71-8.65-5.71-13.99,0-3.7,.93-7.11,2.78-10.23,1.85-3.12,4.44-5.57,7.75-7.35,3.32-1.78,7.03-2.67,11.13-2.67,3.8,0,7.21,.76,10.23,2.27s5.5,3.66,7.42,6.45Z"/>
  <path d="M444.11,5.03c1.68,0,3.13,.61,4.33,1.83s1.81,2.7,1.81,4.43-.6,3.17-1.79,4.38-2.62,1.81-4.28,1.81-3.16-.62-4.36-1.85-1.81-2.72-1.81-4.48,.6-3.13,1.79-4.32,2.63-1.79,4.31-1.79Zm-4.8,15.75h9.6V59.03h-9.6V20.78Z"/>
  <path d="M475.59,19.79c3.61,0,7,.9,10.18,2.71,3.18,1.8,5.65,4.25,7.44,7.35,1.78,3.09,2.67,6.43,2.67,10.02s-.9,6.98-2.69,10.12-4.24,5.6-7.33,7.37-6.5,2.65-10.23,2.65c-5.48,0-10.17-1.95-14.04-5.85-3.88-3.9-5.82-8.64-5.82-14.22,0-5.98,2.19-10.96,6.57-14.94,3.84-3.47,8.26-5.2,13.25-5.2Zm.16,9.04c-2.98,0-5.46,1.04-7.45,3.11-1.98,2.07-2.98,4.73-2.98,7.96s.98,6.02,2.94,8.09c1.96,2.06,4.44,3.09,7.45,3.09s5.51-1.04,7.5-3.13c2-2.09,2.99-4.77,2.99-8.05s-.98-5.95-2.94-8c-1.96-2.05-4.47-3.08-7.52-3.08Zm1.63-28.83h11.36l-12.87,13.78h-6.89l8.4-13.78Z"/>
  <path d="M503.72,20.78h9.6v3.92c2.18-1.84,4.15-3.11,5.92-3.83,1.77-.72,3.58-1.08,5.42-1.08,3.79,0,7.01,1.32,9.65,3.97,2.22,2.25,3.33,5.58,3.33,9.98v25.28h-9.49v-16.75c0-4.57-.21-7.6-.61-9.1s-1.12-2.64-2.14-3.42c-1.02-.78-2.27-1.18-3.77-1.18-1.94,0-3.61,.65-5,1.95-1.39,1.3-2.36,3.1-2.89,5.39-.28,1.19-.42,3.78-.42,7.76v15.35h-9.6V20.78Z"/>
</svg>