<?xml version="1.0" encoding="UTF-8"?>
<svg id="Capa_1" data-name="Capa 1" xmlns="http://www.w3.org/2000/svg" viewBox="0 0 576.15 38.32">
  <defs>
    <style>
      .cls-1 {
        fill: #00a79b;
      }
    </style>
  </defs>
  <path class="cls-1" d="M0,1.27H15.68V6.62H5.43v5.2H15.68v5.25H5.43v7.56H15.68v5.37H0V1.27Z"/>
  <path class="cls-1" d="M20.84,.92h5.33v7.83h3.16v4.59h-3.16V30h-5.33V13.34h-2.73v-4.59h2.73V.92Z"/>
  <path class="cls-1" d="M47.87,8.75h5.33V30h-5.33v-2.25c-1.04,.99-2.08,1.7-3.13,2.14-1.05,.44-2.18,.65-3.4,.65-2.74,0-5.12-1.06-7.12-3.19-2-2.13-3-4.78-3-7.94s.97-5.97,2.91-8.07,4.29-3.14,7.06-3.14c1.27,0,2.47,.24,3.59,.72s2.15,1.2,3.1,2.17v-2.34Zm-5.6,4.38c-1.65,0-3.02,.58-4.11,1.75-1.09,1.17-1.64,2.66-1.64,4.48s.55,3.35,1.66,4.53c1.11,1.18,2.48,1.78,4.1,1.78s3.06-.58,4.17-1.75,1.65-2.69,1.65-4.58-.55-3.35-1.65-4.49-2.5-1.72-4.18-1.72Z"/>
  <path class="cls-1" d="M63.89,8.75v2.34c.96-.96,2-1.69,3.12-2.17,1.12-.48,2.32-.72,3.59-.72,2.77,0,5.13,1.05,7.07,3.14,1.94,2.1,2.91,4.79,2.91,8.07s-1,5.81-3.01,7.94c-2.01,2.13-4.38,3.19-7.13,3.19-1.22,0-2.36-.22-3.42-.65s-2.1-1.15-3.14-2.14v10.02h-5.29V8.75h5.29Zm5.61,4.38c-1.68,0-3.07,.57-4.18,1.72-1.11,1.15-1.66,2.64-1.66,4.49s.55,3.42,1.66,4.58c1.11,1.17,2.5,1.75,4.18,1.75s3-.59,4.11-1.78,1.67-2.7,1.67-4.53-.55-3.32-1.64-4.48-2.47-1.75-4.14-1.75Z"/>
  <path class="cls-1" d="M100.68,8.75h5.33V30h-5.33v-2.25c-1.04,.99-2.08,1.7-3.13,2.14-1.05,.44-2.18,.65-3.4,.65-2.74,0-5.12-1.06-7.12-3.19-2-2.13-3-4.78-3-7.94s.97-5.97,2.91-8.07,4.29-3.14,7.06-3.14c1.27,0,2.47,.24,3.59,.72s2.15,1.2,3.1,2.17v-2.34Zm-5.6,4.38c-1.65,0-3.02,.58-4.11,1.75-1.09,1.17-1.64,2.66-1.64,4.48s.55,3.35,1.66,4.53c1.11,1.18,2.48,1.78,4.1,1.78s3.06-.58,4.17-1.75,1.65-2.69,1.65-4.58-.55-3.35-1.65-4.49-2.5-1.72-4.18-1.72Z"/>
  <path class="cls-1" d="M124.41,11.72l-3.3,3.3c-1.34-1.33-2.56-1.99-3.65-1.99-.6,0-1.07,.13-1.41,.38-.34,.25-.51,.57-.51,.95,0,.29,.11,.55,.32,.79s.75,.57,1.59,.99l1.95,.98c2.06,1.02,3.47,2.05,4.24,3.11,.77,1.05,1.15,2.29,1.15,3.71,0,1.89-.69,3.46-2.08,4.73s-3.25,1.89-5.58,1.89c-3.1,0-5.57-1.21-7.42-3.63l3.28-3.57c.62,.73,1.36,1.32,2.2,1.77s1.58,.67,2.24,.67c.7,0,1.27-.17,1.7-.51s.64-.73,.64-1.17c0-.82-.77-1.62-2.32-2.4l-1.8-.9c-3.44-1.73-5.16-3.9-5.16-6.5,0-1.68,.65-3.12,1.94-4.31,1.3-1.19,2.95-1.79,4.97-1.79,1.38,0,2.68,.3,3.9,.91,1.22,.61,2.25,1.47,3.1,2.61Z"/>
  <path class="cls-1" d="M155.88,.55h5.33V30h-5.33v-2.25c-1.04,.99-2.08,1.7-3.13,2.14-1.05,.44-2.18,.65-3.4,.65-2.74,0-5.12-1.06-7.12-3.19-2-2.13-3-4.78-3-7.94s.97-5.97,2.91-8.07,4.29-3.14,7.06-3.14c1.27,0,2.47,.24,3.59,.72s2.15,1.2,3.1,2.17V.55Zm-5.6,12.58c-1.65,0-3.02,.58-4.11,1.75-1.09,1.17-1.64,2.66-1.64,4.48s.55,3.35,1.66,4.53c1.11,1.18,2.48,1.78,4.1,1.78s3.06-.58,4.17-1.75,1.65-2.69,1.65-4.58-.55-3.35-1.65-4.49-2.5-1.72-4.18-1.72Z"/>
  <path class="cls-1" d="M187.89,20.92h-17.13c.25,1.51,.91,2.71,1.98,3.6s2.44,1.34,4.11,1.34c1.99,0,3.7-.7,5.14-2.09l4.49,2.11c-1.12,1.59-2.46,2.76-4.02,3.53s-3.42,1.14-5.57,1.14c-3.33,0-6.05-1.05-8.14-3.15-2.1-2.1-3.14-4.74-3.14-7.9s1.04-5.93,3.13-8.08,4.71-3.21,7.86-3.21c3.35,0,6.07,1.07,8.16,3.21,2.1,2.14,3.14,4.97,3.14,8.49l-.02,1.02Zm-5.33-4.2c-.35-1.18-1.05-2.15-2.08-2.89-1.04-.74-2.24-1.11-3.61-1.11-1.49,0-2.79,.42-3.91,1.25-.7,.52-1.36,1.44-1.96,2.75h11.56Z"/>
  <path class="cls-1" d="M191.62,.55h5.33V30h-5.33V.55Z"/>
  <path d="M239.98,6.32l-3.82,3.65c-2.6-2.75-5.53-4.12-8.78-4.12-2.74,0-5.06,.94-6.94,2.82s-2.82,4.19-2.82,6.94c0,1.92,.42,3.62,1.25,5.1,.83,1.49,2.01,2.65,3.53,3.5,1.52,.85,3.21,1.27,5.07,1.27,1.59,0,3.04-.3,4.35-.89,1.31-.59,2.76-1.67,4.33-3.24l3.71,3.87c-2.12,2.07-4.13,3.51-6.02,4.31-1.89,.8-4.04,1.2-6.46,1.2-4.47,0-8.12-1.42-10.97-4.25-2.85-2.83-4.27-6.46-4.27-10.89,0-2.86,.65-5.41,1.94-7.64,1.3-2.23,3.15-4.02,5.57-5.37,2.42-1.35,5.02-2.03,7.8-2.03,2.37,0,4.65,.5,6.85,1.5,2.19,1,4.08,2.42,5.67,4.27Z"/>
  <path d="M254.16,8.2c2,0,3.89,.5,5.65,1.5,1.76,1,3.14,2.36,4.13,4.08,.99,1.72,1.48,3.57,1.48,5.57s-.5,3.88-1.49,5.62-2.35,3.11-4.07,4.09-3.61,1.47-5.68,1.47c-3.05,0-5.65-1.08-7.8-3.25-2.16-2.17-3.23-4.8-3.23-7.9,0-3.32,1.22-6.09,3.65-8.3,2.14-1.93,4.59-2.89,7.36-2.89Zm.09,5.02c-1.66,0-3.04,.58-4.14,1.73-1.1,1.15-1.65,2.63-1.65,4.42s.54,3.35,1.63,4.49c1.09,1.15,2.47,1.72,4.14,1.72s3.06-.58,4.17-1.74,1.66-2.65,1.66-4.47-.54-3.3-1.63-4.44-2.48-1.71-4.18-1.71Z"/>
  <path d="M285.47,8.75h5.33V30h-5.33v-2.25c-1.04,.99-2.08,1.7-3.13,2.14-1.05,.44-2.18,.65-3.4,.65-2.74,0-5.12-1.06-7.12-3.19-2-2.13-3-4.78-3-7.94s.97-5.97,2.91-8.07,4.29-3.14,7.06-3.14c1.27,0,2.47,.24,3.59,.72s2.15,1.2,3.1,2.17v-2.34Zm-5.6,4.38c-1.65,0-3.02,.58-4.11,1.75-1.09,1.17-1.64,2.66-1.64,4.48s.55,3.35,1.66,4.53c1.11,1.18,2.48,1.78,4.1,1.78s3.06-.58,4.17-1.75,1.65-2.69,1.65-4.58-.55-3.35-1.65-4.49-2.5-1.72-4.18-1.72Z"/>
  <path d="M316.99,13.05l-4.44,2.44c-.83-.87-1.66-1.48-2.47-1.82s-1.77-.51-2.86-.51c-1.99,0-3.61,.59-4.84,1.78s-1.85,2.71-1.85,4.57,.59,3.28,1.78,4.43,2.74,1.72,4.67,1.72c2.39,0,4.24-.81,5.57-2.44l4.2,2.88c-2.28,2.96-5.5,4.45-9.65,4.45-3.74,0-6.66-1.11-8.78-3.32-2.12-2.21-3.17-4.8-3.17-7.77,0-2.06,.51-3.95,1.54-5.68,1.03-1.73,2.46-3.09,4.31-4.08,1.84-.99,3.9-1.48,6.18-1.48,2.11,0,4,.42,5.68,1.26s3.05,2.03,4.12,3.58Z"/>
  <path d="M321.82,.55h5.29V10.9c1.04-.9,2.09-1.57,3.14-2.02s2.12-.67,3.2-.67c2.11,0,3.89,.73,5.33,2.19,1.24,1.26,1.86,3.12,1.86,5.57v14.04h-5.25v-9.32c0-2.46-.12-4.13-.35-5s-.63-1.52-1.2-1.95-1.27-.64-2.1-.64c-1.08,0-2.01,.36-2.78,1.07-.77,.72-1.31,1.69-1.61,2.93-.16,.64-.23,2.1-.23,4.38v8.54h-5.29V.55Z"/>
  <path d="M347.88,0c.93,0,1.74,.34,2.41,1.02,.67,.68,1,1.5,1,2.46s-.33,1.76-.99,2.43c-.66,.67-1.45,1.01-2.38,1.01s-1.76-.34-2.42-1.03c-.67-.68-1-1.51-1-2.49s.33-1.74,.99-2.4,1.46-1,2.4-1Zm-2.67,8.75h5.33V30h-5.33V8.75Z"/>
  <path d="M355.39,8.75h5.33v2.18c1.21-1.02,2.3-1.73,3.29-2.13,.98-.4,1.99-.6,3.01-.6,2.11,0,3.89,.74,5.36,2.21,1.23,1.25,1.85,3.1,1.85,5.55v14.04h-5.27v-9.31c0-2.54-.11-4.22-.34-5.05-.23-.83-.62-1.47-1.19-1.9-.57-.44-1.26-.65-2.09-.65-1.08,0-2,.36-2.78,1.08s-1.31,1.72-1.61,2.99c-.16,.66-.23,2.1-.23,4.31v8.53h-5.33V8.75Z"/>
  <path d="M395.1,8.75h5.31V26.95c0,3.59-.72,6.24-2.17,7.93-1.94,2.29-4.86,3.44-8.77,3.44-2.08,0-3.83-.26-5.25-.78-1.42-.52-2.62-1.29-3.59-2.29s-1.7-2.24-2.17-3.68h5.88c.52,.6,1.19,1.05,2.01,1.36s1.79,.46,2.91,.46c1.43,0,2.58-.22,3.46-.66,.87-.44,1.49-1.02,1.85-1.72,.36-.7,.54-1.91,.54-3.63-.94,.94-1.92,1.61-2.95,2.02-1.03,.41-2.19,.62-3.5,.62-2.85,0-5.26-1.03-7.23-3.09-1.97-2.06-2.95-4.66-2.95-7.81,0-3.37,1.04-6.08,3.12-8.12,1.89-1.85,4.14-2.77,6.76-2.77,1.22,0,2.38,.22,3.47,.67,1.09,.45,2.18,1.19,3.27,2.22v-2.34Zm-5.53,4.43c-1.68,0-3.07,.56-4.16,1.69s-1.64,2.54-1.64,4.25,.56,3.22,1.68,4.36c1.12,1.13,2.53,1.7,4.22,1.7s3.02-.55,4.09-1.66,1.61-2.56,1.61-4.36-.54-3.21-1.62-4.32c-1.08-1.11-2.47-1.66-4.18-1.66Z"/>
  <path class="cls-1" d="M417.56,1.27h5.8c3.14,0,5.4,.29,6.79,.87s2.48,1.52,3.28,2.81,1.2,2.85,1.2,4.66c0,2-.52,3.67-1.57,5-1.05,1.33-2.47,2.25-4.27,2.77-1.05,.3-2.98,.45-5.76,.45v12.17h-5.47V1.27Zm5.47,11.23h1.74c1.37,0,2.32-.1,2.85-.29,.53-.2,.95-.52,1.26-.97,.31-.45,.46-1,.46-1.64,0-1.11-.43-1.92-1.29-2.43-.62-.38-1.78-.57-3.48-.57h-1.54v5.9Z"/>
  <path class="cls-1" d="M460.68,20.92h-17.13c.25,1.51,.91,2.71,1.98,3.6s2.44,1.34,4.11,1.34c1.99,0,3.7-.7,5.14-2.09l4.49,2.11c-1.12,1.59-2.46,2.76-4.02,3.53s-3.42,1.14-5.57,1.14c-3.33,0-6.05-1.05-8.14-3.15-2.1-2.1-3.14-4.74-3.14-7.9s1.04-5.93,3.13-8.08,4.71-3.21,7.86-3.21c3.35,0,6.07,1.07,8.16,3.21,2.1,2.14,3.14,4.97,3.14,8.49l-.02,1.02Zm-5.33-4.2c-.35-1.18-1.05-2.15-2.08-2.89-1.04-.74-2.24-1.11-3.61-1.11-1.49,0-2.79,.42-3.91,1.25-.7,.52-1.36,1.44-1.96,2.75h11.56Z"/>
  <path class="cls-1" d="M463.75,8.75h4.57v2.68c.49-1.05,1.15-1.86,1.97-2.4s1.72-.82,2.7-.82c.69,0,1.41,.18,2.17,.55l-1.66,4.59c-.62-.31-1.14-.47-1.54-.47-.82,0-1.51,.51-2.08,1.52s-.85,3.01-.85,5.98l.02,1.04v8.59h-5.29V8.75Z"/>
  <path class="cls-1" d="M490.8,11.72l-3.3,3.3c-1.34-1.33-2.56-1.99-3.65-1.99-.6,0-1.07,.13-1.41,.38-.34,.25-.51,.57-.51,.95,0,.29,.11,.55,.32,.79s.75,.57,1.59,.99l1.95,.98c2.06,1.02,3.47,2.05,4.24,3.11,.77,1.05,1.15,2.29,1.15,3.71,0,1.89-.69,3.46-2.08,4.73s-3.25,1.89-5.58,1.89c-3.1,0-5.57-1.21-7.42-3.63l3.28-3.57c.62,.73,1.36,1.32,2.2,1.77s1.58,.67,2.24,.67c.7,0,1.27-.17,1.7-.51s.64-.73,.64-1.17c0-.82-.77-1.62-2.32-2.4l-1.8-.9c-3.44-1.73-5.16-3.9-5.16-6.5,0-1.68,.65-3.12,1.94-4.31,1.3-1.19,2.95-1.79,4.97-1.79,1.38,0,2.68,.3,3.9,.91,1.22,.61,2.25,1.47,3.1,2.61Z"/>
  <path class="cls-1" d="M505.37,8.2c2,0,3.89,.5,5.65,1.5,1.76,1,3.14,2.36,4.13,4.08,.99,1.72,1.48,3.57,1.48,5.57s-.5,3.88-1.49,5.62-2.35,3.11-4.07,4.09-3.61,1.47-5.68,1.47c-3.05,0-5.65-1.08-7.8-3.25-2.16-2.17-3.23-4.8-3.23-7.9,0-3.32,1.22-6.09,3.65-8.3,2.14-1.93,4.59-2.89,7.36-2.89Zm.09,5.02c-1.66,0-3.04,.58-4.14,1.73-1.1,1.15-1.65,2.63-1.65,4.42s.54,3.35,1.63,4.49c1.09,1.15,2.47,1.72,4.14,1.72s3.06-.58,4.17-1.74,1.66-2.65,1.66-4.47-.54-3.3-1.63-4.44-2.48-1.71-4.18-1.71Z"/>
  <path class="cls-1" d="M521,8.75h5.33v2.18c1.21-1.02,2.3-1.73,3.29-2.13,.98-.4,1.99-.6,3.01-.6,2.11,0,3.89,.74,5.36,2.21,1.23,1.25,1.85,3.1,1.85,5.55v14.04h-5.27v-9.31c0-2.54-.11-4.22-.34-5.05-.23-.83-.62-1.47-1.19-1.9-.57-.44-1.26-.65-2.09-.65-1.08,0-2,.36-2.78,1.08s-1.31,1.72-1.61,2.99c-.16,.66-.23,2.1-.23,4.31v8.53h-5.33V8.75Z"/>
  <path class="cls-1" d="M560.68,8.75h5.33V30h-5.33v-2.25c-1.04,.99-2.08,1.7-3.13,2.14-1.05,.44-2.18,.65-3.4,.65-2.74,0-5.12-1.06-7.12-3.19-2-2.13-3-4.78-3-7.94s.97-5.97,2.91-8.07,4.29-3.14,7.06-3.14c1.27,0,2.47,.24,3.59,.72s2.15,1.2,3.1,2.17v-2.34Zm-5.6,4.38c-1.65,0-3.02,.58-4.11,1.75-1.09,1.17-1.64,2.66-1.64,4.48s.55,3.35,1.66,4.53c1.11,1.18,2.48,1.78,4.1,1.78s3.06-.58,4.17-1.75,1.65-2.69,1.65-4.58-.55-3.35-1.65-4.49-2.5-1.72-4.18-1.72Z"/>
  <path class="cls-1" d="M570.82,.55h5.33V30h-5.33V.55Z"/>
</svg>