<?xml version="1.0" encoding="UTF-8"?>
<svg id="Capa_1" data-name="Capa 1" xmlns="http://www.w3.org/2000/svg" xmlns:xlink="http://www.w3.org/1999/xlink" viewBox="0 0 63.17 63.17">
  <defs>
    <style>
      .cls-1 {
        fill: #fff;
      }

      .cls-2 {
        fill: url(#Degradado_sin_nombre_2);
      }
    </style>
    <linearGradient id="Degradado_sin_nombre_2" data-name="Degradado sin nombre 2" x1="0" y1="31.59" x2="63.17" y2="31.59" gradientUnits="userSpaceOnUse">
      <stop offset="0" stop-color="#00a79b"/>
      <stop offset="1" stop-color="#79bf43"/>
    </linearGradient>
  </defs>
  <g>
    <circle class="cls-1" cx="31.59" cy="31.59" r="28.77"/>
    <path class="cls-2" d="M31.59,63.17C14.17,63.17,0,49,0,31.59S14.17,0,31.59,0s31.59,14.17,31.59,31.59-14.17,31.59-31.59,31.59Zm0-57.55c-14.31,0-25.96,11.64-25.96,25.96s11.64,25.96,25.96,25.96,25.96-11.65,25.96-25.96S45.9,5.63,31.59,5.63Z"/>
  </g>
  <path d="M28.24,25.49h-4.52c.24-1.83,.89-3.29,1.97-4.4,1.5-1.55,3.39-2.32,5.67-2.32,2.03,0,3.73,.64,5.1,1.93,1.37,1.29,2.06,2.82,2.06,4.59,0,1.1-.3,2.1-.9,3.01-.6,.91-1.47,1.64-2.61,2.2,1.5,.45,2.68,1.23,3.52,2.34s1.27,2.43,1.27,3.94c0,2.22-.82,4.1-2.45,5.64-1.64,1.54-3.72,2.31-6.25,2.31-2.4,0-4.35-.73-5.87-2.18-1.51-1.45-2.34-3.43-2.49-5.93h4.66c.2,1.28,.65,2.23,1.34,2.85,.69,.62,1.56,.93,2.61,.93s2.01-.35,2.73-1.06c.72-.71,1.08-1.57,1.08-2.59,0-1.12-.49-2.07-1.46-2.84-.98-.77-2.38-1.17-4.22-1.19v-4.03c1.13-.09,1.98-.27,2.53-.53,.55-.26,.99-.62,1.29-1.08,.31-.46,.46-.95,.46-1.46,0-.67-.24-1.23-.71-1.67-.47-.44-1.09-.66-1.85-.66-.67,0-1.28,.21-1.83,.61-.55,.41-.92,.94-1.13,1.59Z"/>
</svg>