<?xml version="1.0" encoding="UTF-8"?>
<svg id="Capa_1" data-name="Capa 1" xmlns="http://www.w3.org/2000/svg" xmlns:xlink="http://www.w3.org/1999/xlink" viewBox="0 0 63.17 63.17">
  <defs>
    <style>
      .cls-1 {
        fill: #fff;
      }

      .cls-2 {
        fill: url(#Degradado_sin_nombre_2);
      }
    </style>
    <linearGradient id="Degradado_sin_nombre_2" data-name="Degradado sin nombre 2" x1="0" y1="31.59" x2="63.17" y2="31.59" gradientUnits="userSpaceOnUse">
      <stop offset="0" stop-color="#00a79b"/>
      <stop offset="1" stop-color="#79bf43"/>
    </linearGradient>
  </defs>
  <g>
    <circle class="cls-1" cx="31.59" cy="31.59" r="28.77" transform="translate(-13.08 31.59) rotate(-45)"/>
    <path class="cls-2" d="M31.59,63.17C14.17,63.17,0,49,0,31.59S14.17,0,31.59,0s31.59,14.17,31.59,31.59-14.17,31.59-31.59,31.59Zm0-57.54c-14.31,0-25.96,11.64-25.96,25.96s11.64,25.96,25.96,25.96,25.96-11.65,25.96-25.96S45.9,5.63,31.59,5.63Z"/>
  </g>
  <path d="M23.76,18.91h16.22v2.47l-11.16,22.88-3.98-1.93,9.29-19h-10.37v-4.42Z"/>
</svg>